{
  "frames": {
    "card_hearts_1": {
      "frame": {
        "x": 0,
        "y": 0,
        "w": 152,
        "h": 212
      },
      "rotated": false,
      "trimmed": false,
      "spriteSourceSize": {
        "x": 0,
        "y": 0,
        "w": 152,
        "h": 212
      },
      "sourceSize": {
        "w": 152,
        "h": 212
      },
      "pivot": {
        "x": 0.5,
        "y": 0.5
      },
      "data": {
        "color": "hearts",
        "value": 1
      }
    },
    "card_hearts_2": {
      "frame": {
        "x": 152,
        "y": 0,
        "w": 152,
        "h": 212
      },
      "rotated": false,
      "trimmed": false,
      "spriteSourceSize": {
        "x": 0,
        "y": 0,
        "w": 152,
        "h": 212
      },
      "sourceSize": {
        "w": 152,
        "h": 212
      },
      "pivot": {
        "x": 0.5,
        "y": 0.5
      },
      "data": {
        "color": "hearts",
        "value": 2
      }
    },
    "card_hearts_3": {
      "frame": {
        "x": 304,
        "y": 0,
        "w": 152,
        "h": 212
      },
      "rotated": false,
      "trimmed": false,
      "spriteSourceSize": {
        "x": 0,
        "y": 0,
        "w": 152,
        "h": 212
      },
      "sourceSize": {
        "w": 152,
        "h": 212
      },
      "pivot": {
        "x": 0.5,
        "y": 0.5
      },
      "data": {
        "color": "hearts",
        "value": 3
      }
    },
    "card_hearts_4": {
      "frame": {
        "x": 456,
        "y": 0,
        "w": 152,
        "h": 212
      },
      "rotated": false,
      "trimmed": false,
      "spriteSourceSize": {
        "x": 0,
        "y": 0,
        "w": 152,
        "h": 212
      },
      "sourceSize": {
        "w": 152,
        "h": 212
      },
      "pivot": {
        "x": 0.5,
        "y": 0.5
      },
      "data": {
        "color": "hearts",
        "value": 4
      }
    },
    "card_hearts_5": {
      "frame": {
        "x": 608,
        "y": 0,
        "w": 152,
        "h": 212
      },
      "rotated": false,
      "trimmed": false,
      "spriteSourceSize": {
        "x": 0,
        "y": 0,
        "w": 152,
        "h": 212
      },
      "sourceSize": {
        "w": 152,
        "h": 212
      },
      "pivot": {
        "x": 0.5,
        "y": 0.5
      },
      "data": {
        "color": "hearts",
        "value": 5
      }
    },
    "card_hearts_6": {
      "frame": {
        "x": 760,
        "y": 0,
        "w": 152,
        "h": 212
      },
      "rotated": false,
      "trimmed": false,
      "spriteSourceSize": {
        "x": 0,
        "y": 0,
        "w": 152,
        "h": 212
      },
      "sourceSize": {
        "w": 152,
        "h": 212
      },
      "pivot": {
        "x": 0.5,
        "y": 0.5
      },
      "data": {
        "color": "hearts",
        "value": 6
      }
    },
    "card_hearts_7": {
      "frame": {
        "x": 912,
        "y": 0,
        "w": 152,
        "h": 212
      },
      "rotated": false,
      "trimmed": false,
      "spriteSourceSize": {
        "x": 0,
        "y": 0,
        "w": 152,
        "h": 212
      },
      "sourceSize": {
        "w": 152,
        "h": 212
      },
      "pivot": {
        "x": 0.5,
        "y": 0.5
      },
      "data": {
        "color": "hearts",
        "value": 7
      }
    },
    "card_hearts_8": {
      "frame": {
        "x": 1064,
        "y": 0,
        "w": 152,
        "h": 212
      },
      "rotated": false,
      "trimmed": false,
      "spriteSourceSize": {
        "x": 0,
        "y": 0,
        "w": 152,
        "h": 212
      },
      "sourceSize": {
        "w": 152,
        "h": 212
      },
      "pivot": {
        "x": 0.5,
        "y": 0.5
      },
      "data": {
        "color": "hearts",
        "value": 8
      }
    },
    "card_hearts_9": {
      "frame": {
        "x": 1216,
        "y": 0,
        "w": 152,
        "h": 212
      },
      "rotated": false,
      "trimmed": false,
      "spriteSourceSize": {
        "x": 0,
        "y": 0,
        "w": 152,
        "h": 212
      },
      "sourceSize": {
        "w": 152,
        "h": 212
      },
      "pivot": {
        "x": 0.5,
        "y": 0.5
      },
      "data": {
        "color": "hearts",
        "value": 9
      }
    },
    "card_hearts_10": {
      "frame": {
        "x": 1368,
        "y": 0,
        "w": 152,
        "h": 212
      },
      "rotated": false,
      "trimmed": false,
      "spriteSourceSize": {
        "x": 0,
        "y": 0,
        "w": 152,
        "h": 212
      },
      "sourceSize": {
        "w": 152,
        "h": 212
      },
      "pivot": {
        "x": 0.5,
        "y": 0.5
      },
      "data": {
        "color": "hearts",
        "value": 10
      }
    },
    "card_hearts_11": {
      "frame": {
        "x": 1520,
        "y": 0,
        "w": 152,
        "h": 212
      },
      "rotated": false,
      "trimmed": false,
      "spriteSourceSize": {
        "x": 0,
        "y": 0,
        "w": 152,
        "h": 212
      },
      "sourceSize": {
        "w": 152,
        "h": 212
      },
      "pivot": {
        "x": 0.5,
        "y": 0.5
      },
      "data": {
        "color": "hearts",
        "value": 11
      }
    },
    "card_hearts_12": {
      "frame": {
        "x": 1672,
        "y": 0,
        "w": 152,
        "h": 212
      },
      "rotated": false,
      "trimmed": false,
      "spriteSourceSize": {
        "x": 0,
        "y": 0,
        "w": 152,
        "h": 212
      },
      "sourceSize": {
        "w": 152,
        "h": 212
      },
      "pivot": {
        "x": 0.5,
        "y": 0.5
      },
      "data": {
        "color": "hearts",
        "value": 12
      }
    },
    "card_hearts_13": {
      "frame": {
        "x": 1824,
        "y": 0,
        "w": 152,
        "h": 212
      },
      "rotated": false,
      "trimmed": false,
      "spriteSourceSize": {
        "x": 0,
        "y": 0,
        "w": 152,
        "h": 212
      },
      "sourceSize": {
        "w": 152,
        "h": 212
      },
      "pivot": {
        "x": 0.5,
        "y": 0.5
      },
      "data": {
        "color": "hearts",
        "value": 13
      }
    },
    "card_diamonds_1": {
      "frame": {
        "x": 0,
        "y": 212,
        "w": 152,
        "h": 212
      },
      "rotated": false,
      "trimmed": false,
      "spriteSourceSize": {
        "x": 0,
        "y": 0,
        "w": 152,
        "h": 212
      },
      "sourceSize": {
        "w": 152,
        "h": 212
      },
      "pivot": {
        "x": 0.5,
        "y": 0.5
      },
      "data": {
        "color": "diamonds",
        "value": 1
      }
    },
    "card_diamonds_2": {
      "frame": {
        "x": 152,
        "y": 212,
        "w": 152,
        "h": 212
      },
      "rotated": false,
      "trimmed": false,
      "spriteSourceSize": {
        "x": 0,
        "y": 0,
        "w": 152,
        "h": 212
      },
      "sourceSize": {
        "w": 152,
        "h": 212
      },
      "pivot": {
        "x": 0.5,
        "y": 0.5
      },
      "data": {
        "color": "diamonds",
        "value": 2
      }
    },
    "card_diamonds_3": {
      "frame": {
        "x": 304,
        "y": 212,
        "w": 152,
        "h": 212
      },
      "rotated": false,
      "trimmed": false,
      "spriteSourceSize": {
        "x": 0,
        "y": 0,
        "w": 152,
        "h": 212
      },
      "sourceSize": {
        "w": 152,
        "h": 212
      },
      "pivot": {
        "x": 0.5,
        "y": 0.5
      },
      "data": {
        "color": "diamonds",
        "value": 3
      }
    },
    "card_diamonds_4": {
      "frame": {
        "x": 456,
        "y": 212,
        "w": 152,
        "h": 212
      },
      "rotated": false,
      "trimmed": false,
      "spriteSourceSize": {
        "x": 0,
        "y": 0,
        "w": 152,
        "h": 212
      },
      "sourceSize": {
        "w": 152,
        "h": 212
      },
      "pivot": {
        "x": 0.5,
        "y": 0.5
      },
      "data": {
        "color": "diamonds",
        "value": 4
      }
    },
    "card_diamonds_5": {
      "frame": {
        "x": 608,
        "y": 212,
        "w": 152,
        "h": 212
      },
      "rotated": false,
      "trimmed": false,
      "spriteSourceSize": {
        "x": 0,
        "y": 0,
        "w": 152,
        "h": 212
      },
      "sourceSize": {
        "w": 152,
        "h": 212
      },
      "pivot": {
        "x": 0.5,
        "y": 0.5
      },
      "data": {
        "color": "diamonds",
        "value": 5
      }
    },
    "card_diamonds_6": {
      "frame": {
        "x": 760,
        "y": 212,
        "w": 152,
        "h": 212
      },
      "rotated": false,
      "trimmed": false,
      "spriteSourceSize": {
        "x": 0,
        "y": 0,
        "w": 152,
        "h": 212
      },
      "sourceSize": {
        "w": 152,
        "h": 212
      },
      "pivot": {
        "x": 0.5,
        "y": 0.5
      },
      "data": {
        "color": "diamonds",
        "value": 6
      }
    },
    "card_diamonds_7": {
      "frame": {
        "x": 912,
        "y": 212,
        "w": 152,
        "h": 212
      },
      "rotated": false,
      "trimmed": false,
      "spriteSourceSize": {
        "x": 0,
        "y": 0,
        "w": 152,
        "h": 212
      },
      "sourceSize": {
        "w": 152,
        "h": 212
      },
      "pivot": {
        "x": 0.5,
        "y": 0.5
      },
      "data": {
        "color": "diamonds",
        "value": 7
      }
    },
    "card_diamonds_8": {
      "frame": {
        "x": 1064,
        "y": 212,
        "w": 152,
        "h": 212
      },
      "rotated": false,
      "trimmed": false,
      "spriteSourceSize": {
        "x": 0,
        "y": 0,
        "w": 152,
        "h": 212
      },
      "sourceSize": {
        "w": 152,
        "h": 212
      },
      "pivot": {
        "x": 0.5,
        "y": 0.5
      },
      "data": {
        "color": "diamonds",
        "value": 8
      }
    },
    "card_diamonds_9": {
      "frame": {
        "x": 1216,
        "y": 212,
        "w": 152,
        "h": 212
      },
      "rotated": false,
      "trimmed": false,
      "spriteSourceSize": {
        "x": 0,
        "y": 0,
        "w": 152,
        "h": 212
      },
      "sourceSize": {
        "w": 152,
        "h": 212
      },
      "pivot": {
        "x": 0.5,
        "y": 0.5
      },
      "data": {
        "color": "diamonds",
        "value": 9
      }
    },
    "card_diamonds_10": {
      "frame": {
        "x": 1368,
        "y": 212,
        "w": 152,
        "h": 212
      },
      "rotated": false,
      "trimmed": false,
      "spriteSourceSize": {
        "x": 0,
        "y": 0,
        "w": 152,
        "h": 212
      },
      "sourceSize": {
        "w": 152,
        "h": 212
      },
      "pivot": {
        "x": 0.5,
        "y": 0.5
      },
      "data": {
        "color": "diamonds",
        "value": 10
      }
    },
    "card_diamonds_11": {
      "frame": {
        "x": 1520,
        "y": 212,
        "w": 152,
        "h": 212
      },
      "rotated": false,
      "trimmed": false,
      "spriteSourceSize": {
        "x": 0,
        "y": 0,
        "w": 152,
        "h": 212
      },
      "sourceSize": {
        "w": 152,
        "h": 212
      },
      "pivot": {
        "x": 0.5,
        "y": 0.5
      },
      "data": {
        "color": "diamonds",
        "value": 11
      }
    },
    "card_diamonds_12": {
      "frame": {
        "x": 1672,
        "y": 212,
        "w": 152,
        "h": 212
      },
      "rotated": false,
      "trimmed": false,
      "spriteSourceSize": {
        "x": 0,
        "y": 0,
        "w": 152,
        "h": 212
      },
      "sourceSize": {
        "w": 152,
        "h": 212
      },
      "pivot": {
        "x": 0.5,
        "y": 0.5
      },
      "data": {
        "color": "diamonds",
        "value": 12
      }
    },
    "card_diamonds_13": {
      "frame": {
        "x": 1824,
        "y": 212,
        "w": 152,
        "h": 212
      },
      "rotated": false,
      "trimmed": false,
      "spriteSourceSize": {
        "x": 0,
        "y": 0,
        "w": 152,
        "h": 212
      },
      "sourceSize": {
        "w": 152,
        "h": 212
      },
      "pivot": {
        "x": 0.5,
        "y": 0.5
      },
      "data": {
        "color": "diamonds",
        "value": 13
      }
    },
    "card_spades_1": {
      "frame": {
        "x": 0,
        "y": 424,
        "w": 152,
        "h": 212
      },
      "rotated": false,
      "trimmed": false,
      "spriteSourceSize": {
        "x": 0,
        "y": 0,
        "w": 152,
        "h": 212
      },
      "sourceSize": {
        "w": 152,
        "h": 212
      },
      "pivot": {
        "x": 0.5,
        "y": 0.5
      },
      "data": {
        "color": "spades",
        "value": 1
      }
    },
    "card_spades_2": {
      "frame": {
        "x": 152,
        "y": 424,
        "w": 152,
        "h": 212
      },
      "rotated": false,
      "trimmed": false,
      "spriteSourceSize": {
        "x": 0,
        "y": 0,
        "w": 152,
        "h": 212
      },
      "sourceSize": {
        "w": 152,
        "h": 212
      },
      "pivot": {
        "x": 0.5,
        "y": 0.5
      },
      "data": {
        "color": "spades",
        "value": 2
      }
    },
    "card_spades_3": {
      "frame": {
        "x": 304,
        "y": 424,
        "w": 152,
        "h": 212
      },
      "rotated": false,
      "trimmed": false,
      "spriteSourceSize": {
        "x": 0,
        "y": 0,
        "w": 152,
        "h": 212
      },
      "sourceSize": {
        "w": 152,
        "h": 212
      },
      "pivot": {
        "x": 0.5,
        "y": 0.5
      },
      "data": {
        "color": "spades",
        "value": 3
      }
    },
    "card_spades_4": {
      "frame": {
        "x": 456,
        "y": 424,
        "w": 152,
        "h": 212
      },
      "rotated": false,
      "trimmed": false,
      "spriteSourceSize": {
        "x": 0,
        "y": 0,
        "w": 152,
        "h": 212
      },
      "sourceSize": {
        "w": 152,
        "h": 212
      },
      "pivot": {
        "x": 0.5,
        "y": 0.5
      },
      "data": {
        "color": "spades",
        "value": 4
      }
    },
    "card_spades_5": {
      "frame": {
        "x": 608,
        "y": 424,
        "w": 152,
        "h": 212
      },
      "rotated": false,
      "trimmed": false,
      "spriteSourceSize": {
        "x": 0,
        "y": 0,
        "w": 152,
        "h": 212
      },
      "sourceSize": {
        "w": 152,
        "h": 212
      },
      "pivot": {
        "x": 0.5,
        "y": 0.5
      },
      "data": {
        "color": "spades",
        "value": 5
      }
    },
    "card_spades_6": {
      "frame": {
        "x": 760,
        "y": 424,
        "w": 152,
        "h": 212
      },
      "rotated": false,
      "trimmed": false,
      "spriteSourceSize": {
        "x": 0,
        "y": 0,
        "w": 152,
        "h": 212
      },
      "sourceSize": {
        "w": 152,
        "h": 212
      },
      "pivot": {
        "x": 0.5,
        "y": 0.5
      },
      "data": {
        "color": "spades",
        "value": 6
      }
    },
    "card_spades_7": {
      "frame": {
        "x": 912,
        "y": 424,
        "w": 152,
        "h": 212
      },
      "rotated": false,
      "trimmed": false,
      "spriteSourceSize": {
        "x": 0,
        "y": 0,
        "w": 152,
        "h": 212
      },
      "sourceSize": {
        "w": 152,
        "h": 212
      },
      "pivot": {
        "x": 0.5,
        "y": 0.5
      },
      "data": {
        "color": "spades",
        "value": 7
      }
    },
    "card_spades_8": {
      "frame": {
        "x": 1064,
        "y": 424,
        "w": 152,
        "h": 212
      },
      "rotated": false,
      "trimmed": false,
      "spriteSourceSize": {
        "x": 0,
        "y": 0,
        "w": 152,
        "h": 212
      },
      "sourceSize": {
        "w": 152,
        "h": 212
      },
      "pivot": {
        "x": 0.5,
        "y": 0.5
      },
      "data": {
        "color": "spades",
        "value": 8
      }
    },
    "card_spades_9": {
      "frame": {
        "x": 1216,
        "y": 424,
        "w": 152,
        "h": 212
      },
      "rotated": false,
      "trimmed": false,
      "spriteSourceSize": {
        "x": 0,
        "y": 0,
        "w": 152,
        "h": 212
      },
      "sourceSize": {
        "w": 152,
        "h": 212
      },
      "pivot": {
        "x": 0.5,
        "y": 0.5
      },
      "data": {
        "color": "spades",
        "value": 9
      }
    },
    "card_spades_10": {
      "frame": {
        "x": 1368,
        "y": 424,
        "w": 152,
        "h": 212
      },
      "rotated": false,
      "trimmed": false,
      "spriteSourceSize": {
        "x": 0,
        "y": 0,
        "w": 152,
        "h": 212
      },
      "sourceSize": {
        "w": 152,
        "h": 212
      },
      "pivot": {
        "x": 0.5,
        "y": 0.5
      },
      "data": {
        "color": "spades",
        "value": 10
      }
    },
    "card_spades_11": {
      "frame": {
        "x": 1520,
        "y": 424,
        "w": 152,
        "h": 212
      },
      "rotated": false,
      "trimmed": false,
      "spriteSourceSize": {
        "x": 0,
        "y": 0,
        "w": 152,
        "h": 212
      },
      "sourceSize": {
        "w": 152,
        "h": 212
      },
      "pivot": {
        "x": 0.5,
        "y": 0.5
      },
      "data": {
        "color": "spades",
        "value": 11
      }
    },
    "card_spades_12": {
      "frame": {
        "x": 1672,
        "y": 424,
        "w": 152,
        "h": 212
      },
      "rotated": false,
      "trimmed": false,
      "spriteSourceSize": {
        "x": 0,
        "y": 0,
        "w": 152,
        "h": 212
      },
      "sourceSize": {
        "w": 152,
        "h": 212
      },
      "pivot": {
        "x": 0.5,
        "y": 0.5
      },
      "data": {
        "color": "spades",
        "value": 12
      }
    },
    "card_spades_13": {
      "frame": {
        "x": 1824,
        "y": 424,
        "w": 152,
        "h": 212
      },
      "rotated": false,
      "trimmed": false,
      "spriteSourceSize": {
        "x": 0,
        "y": 0,
        "w": 152,
        "h": 212
      },
      "sourceSize": {
        "w": 152,
        "h": 212
      },
      "pivot": {
        "x": 0.5,
        "y": 0.5
      },
      "data": {
        "color": "spades",
        "value": 13
      }
    },
    "card_clubs_1": {
      "frame": {
        "x": 0,
        "y": 636,
        "w": 152,
        "h": 212
      },
      "rotated": false,
      "trimmed": false,
      "spriteSourceSize": {
        "x": 0,
        "y": 0,
        "w": 152,
        "h": 212
      },
      "sourceSize": {
        "w": 152,
        "h": 212
      },
      "pivot": {
        "x": 0.5,
        "y": 0.5
      },
      "data": {
        "color": "clubs",
        "value": 1
      }
    },
    "card_clubs_2": {
      "frame": {
        "x": 152,
        "y": 636,
        "w": 152,
        "h": 212
      },
      "rotated": false,
      "trimmed": false,
      "spriteSourceSize": {
        "x": 0,
        "y": 0,
        "w": 152,
        "h": 212
      },
      "sourceSize": {
        "w": 152,
        "h": 212
      },
      "pivot": {
        "x": 0.5,
        "y": 0.5
      },
      "data": {
        "color": "clubs",
        "value": 2
      }
    },
    "card_clubs_3": {
      "frame": {
        "x": 304,
        "y": 636,
        "w": 152,
        "h": 212
      },
      "rotated": false,
      "trimmed": false,
      "spriteSourceSize": {
        "x": 0,
        "y": 0,
        "w": 152,
        "h": 212
      },
      "sourceSize": {
        "w": 152,
        "h": 212
      },
      "pivot": {
        "x": 0.5,
        "y": 0.5
      },
      "data": {
        "color": "clubs",
        "value": 3
      }
    },
    "card_clubs_4": {
      "frame": {
        "x": 456,
        "y": 636,
        "w": 152,
        "h": 212
      },
      "rotated": false,
      "trimmed": false,
      "spriteSourceSize": {
        "x": 0,
        "y": 0,
        "w": 152,
        "h": 212
      },
      "sourceSize": {
        "w": 152,
        "h": 212
      },
      "pivot": {
        "x": 0.5,
        "y": 0.5
      },
      "data": {
        "color": "clubs",
        "value": 4
      }
    },
    "card_clubs_5": {
      "frame": {
        "x": 608,
        "y": 636,
        "w": 152,
        "h": 212
      },
      "rotated": false,
      "trimmed": false,
      "spriteSourceSize": {
        "x": 0,
        "y": 0,
        "w": 152,
        "h": 212
      },
      "sourceSize": {
        "w": 152,
        "h": 212
      },
      "pivot": {
        "x": 0.5,
        "y": 0.5
      },
      "data": {
        "color": "clubs",
        "value": 5
      }
    },
    "card_clubs_6": {
      "frame": {
        "x": 760,
        "y": 636,
        "w": 152,
        "h": 212
      },
      "rotated": false,
      "trimmed": false,
      "spriteSourceSize": {
        "x": 0,
        "y": 0,
        "w": 152,
        "h": 212
      },
      "sourceSize": {
        "w": 152,
        "h": 212
      },
      "pivot": {
        "x": 0.5,
        "y": 0.5
      },
      "data": {
        "color": "clubs",
        "value": 6
      }
    },
    "card_clubs_7": {
      "frame": {
        "x": 912,
        "y": 636,
        "w": 152,
        "h": 212
      },
      "rotated": false,
      "trimmed": false,
      "spriteSourceSize": {
        "x": 0,
        "y": 0,
        "w": 152,
        "h": 212
      },
      "sourceSize": {
        "w": 152,
        "h": 212
      },
      "pivot": {
        "x": 0.5,
        "y": 0.5
      },
      "data": {
        "color": "clubs",
        "value": 7
      }
    },
    "card_clubs_8": {
      "frame": {
        "x": 1064,
        "y": 636,
        "w": 152,
        "h": 212
      },
      "rotated": false,
      "trimmed": false,
      "spriteSourceSize": {
        "x": 0,
        "y": 0,
        "w": 152,
        "h": 212
      },
      "sourceSize": {
        "w": 152,
        "h": 212
      },
      "pivot": {
        "x": 0.5,
        "y": 0.5
      },
      "data": {
        "color": "clubs",
        "value": 8
      }
    },
    "card_clubs_9": {
      "frame": {
        "x": 1216,
        "y": 636,
        "w": 152,
        "h": 212
      },
      "rotated": false,
      "trimmed": false,
      "spriteSourceSize": {
        "x": 0,
        "y": 0,
        "w": 152,
        "h": 212
      },
      "sourceSize": {
        "w": 152,
        "h": 212
      },
      "pivot": {
        "x": 0.5,
        "y": 0.5
      },
      "data": {
        "color": "clubs",
        "value": 9
      }
    },
    "card_clubs_10": {
      "frame": {
        "x": 1368,
        "y": 636,
        "w": 152,
        "h": 212
      },
      "rotated": false,
      "trimmed": false,
      "spriteSourceSize": {
        "x": 0,
        "y": 0,
        "w": 152,
        "h": 212
      },
      "sourceSize": {
        "w": 152,
        "h": 212
      },
      "pivot": {
        "x": 0.5,
        "y": 0.5
      },
      "data": {
        "color": "clubs",
        "value": 10
      }
    },
    "card_clubs_11": {
      "frame": {
        "x": 1520,
        "y": 636,
        "w": 152,
        "h": 212
      },
      "rotated": false,
      "trimmed": false,
      "spriteSourceSize": {
        "x": 0,
        "y": 0,
        "w": 152,
        "h": 212
      },
      "sourceSize": {
        "w": 152,
        "h": 212
      },
      "pivot": {
        "x": 0.5,
        "y": 0.5
      },
      "data": {
        "color": "clubs",
        "value": 11
      }
    },
    "card_clubs_12": {
      "frame": {
        "x": 1672,
        "y": 636,
        "w": 152,
        "h": 212
      },
      "rotated": false,
      "trimmed": false,
      "spriteSourceSize": {
        "x": 0,
        "y": 0,
        "w": 152,
        "h": 212
      },
      "sourceSize": {
        "w": 152,
        "h": 212
      },
      "pivot": {
        "x": 0.5,
        "y": 0.5
      },
      "data": {
        "color": "clubs",
        "value": 12
      }
    },
    "card_clubs_13": {
      "frame": {
        "x": 1824,
        "y": 636,
        "w": 152,
        "h": 212
      },
      "rotated": false,
      "trimmed": false,
      "spriteSourceSize": {
        "x": 0,
        "y": 0,
        "w": 152,
        "h": 212
      },
      "sourceSize": {
        "w": 152,
        "h": 212
      },
      "pivot": {
        "x": 0.5,
        "y": 0.5
      },
      "data": {
        "color": "clubs",
        "value": 13
      }
    },
    "back": {
      "frame": {
        "x": 1976,
        "y": 0,
        "w": 152,
        "h": 212
      },
      "rotated": false,
      "trimmed": false,
      "spriteSourceSize": {
        "x": 0,
        "y": 0,
        "w": 152,
        "h": 212
      },
      "sourceSize": {
        "w": 152,
        "h": 212
      },
      "pivot": {
        "x": 0.5,
        "y": 0.5
      },
      "data": {}
    }
  }
}
